COVID Vaccination Rates
…
race[,3:72] <- race[,3:72] * 100 / race$total
race <- race[,-c(2,28:47,49:72)]
race <- as_tibble(race)

features <- full_join(age, education, by = "county") %>% 
  full_join(income, by = "county") %>% 
  left_join(race, by = "county") %>% 
  left_join(presVote, by = "county")
features

## # A tibble: 840 x 91
##    county                     population median_age males_per_100_f~ age_dependency_~
##    <chr>                           <dbl>      <dbl>            <dbl>            <dbl>
##  1 Baldwin County, Alabama        223234       43               95.7             73.5
##  2 Calhoun County, Alabama        113605       39.6             91.5             65.7
##  3 Cullman County, Alabama         83768       41.9             94               69.1
##  4 DeKalb County, Alabama          71513       37.7             99.6             69.7
##  5 Elmore County, Alabama          81209       39               97.4             61.1
##  6 Etowah County, Alabama         102268       41.5             93               69.6
##  7 Houston County, Alabama        105882       40.4             91.8             69.2
##  8 Jefferson County, Alabama      658573       38.3             89.4             64.3
##  9 Lauderdale County, Alabama      92729       40.4             93.4             67.9
## 10 Lee County, Alabama            164542       33.3            100.              50.8
## # ... with 830 more rows, and 86 more variables:
## #   old_age_dependency_ratio <dbl>, child_dependency_ratio <dbl>,
## #   pct_under_5 <dbl>, pct_5_to_9 <dbl>, pct_10_to_14 <dbl>,
## #   pct_15_to_19 <dbl>, pct_20_to_24 <dbl>, pct_25_to_29 <dbl>,
## #   pct_30_to_34 <dbl>, pct_35_to_39 <dbl>, pct_40_to_44 <dbl>,
## #   pct_45_to_49 <dbl>, pct_50_to_54 <dbl>, pct_55_to_59 <dbl>,
## #   pct_60_to_64 <dbl>, pct_65_to_69 <dbl>, pct_70_to_74 <dbl>, ...
…
cdc <- cdc %>%
  filter(vac_rate > 1 & !state %in% c('AL', 'GA', 'HI', 'ID', 'IL', 'LA', 'MA', 
                                      'NM', 'TX', 'VA', 'WV')) %>%
  mutate(state = abbr2state(state)) %>%
  arrange(state, county) %>%
  unite(county, c(county, state), sep = ", ", remove = T)

vaccine <- cdc %>%
  bind_rows(state_vac_data)
vaccine

## # A tibble: 2,874 x 3
##    county                               vac_rate total_vac
##    <chr>                                   <dbl>     <dbl>
##  1 Aleutians East Borough, Alaska           69.6      2321
##  2 Aleutians West Census Area, Alaska       56.5      3181
##  3 Anchorage Municipality, Alaska           56.6    163141
##  4 Bethel Census Area, Alaska               58.5     10753
##  5 Bristol Bay Borough, Alaska              93.3       780
##  6 Denali Borough, Alaska                   46.7       979
##  7 Dillingham Census Area, Alaska           44.6      2193
##  8 Fairbanks North Star Borough, Alaska     48.7     47148
##  9 Haines Borough, Alaska                   64.7      1636
## 10 Hoonah-Angoon Census Area, Alaska        66.5      1428
## # ... with 2,864 more rows
…
